Chapter 12 Create a data package | rstudio4edu
…
Note: It’s always a good idea to start with the most unprocessed, messy version of the data .csv in the data-raw/ folder along with scripts to clean it up so that your workflow is reproducible.

Once you’ve got your dataset the way you want it within <your-data>_load.R, run usethis::use_data() as the last line in the script to export the data as an .rda file to the data/ folder 🍣.

# shrimp_load.R

usethis::use_data(shrimp, overwrite = TRUE)

FYI: The reason .rda (also called .RData) .RDataare use in packaged data sets is because this type of data file format is much faster to read in than .csv files.

5. Trust but verify that your data set made it in your package by loading the package (Build pane > Click More > Load All or in the console using devtools::load_all()). And then call your dataset!

> shrimp
# A tibble: 243 x 10
    Year Month `0-15` `15-20` `20-25` `25-30` `30-40` `40-50` `50-67` Pieces
   <dbl> <dbl>  <dbl>   <dbl>   <dbl>   <dbl>   <dbl>   <dbl>   <dbl>  <dbl>
 1  1990     1   5.76    4.53    3.86    3.51    3.19    2.84    2.54   1.91
 2  1990     2   5.96    4.60    3.90    3.66    3.36    2.93    2.66   1.99
 3  1990     3   6.34    4.75    4.17    3.87    3.56    3.41    3.18   2.46
 4  1990     4   6.06    4.90    4.27    3.97    3.70    3.20    2.91   1.78
 5  1990     5   5.83    4.83    4.46    4.04    3.64    2.96    2.17   1.19
 6  1990     6   5.82    4.79    4.38    3.88    3.27    2.71    2.24   1.45
 7  1990     7   5.92    4.99    4.36    3.54    2.88    2.51    2.17   1.65
 8  1990     8   5.56    4.85    4.27    3.50    2.93    2.45    2.14   1.60
 9  1990     9   5.91    5.00    4.42    3.76    3.14    2.66    2.34   1.75
10  1990    10   6.31    5.30    4.67    4.18    3.45    2.97    2.66   1.96
# … with 233 more rows
…
Finally (FINALLY!!) all the pieces of our package are now in place, and it’s time to install it.

14. Go to Build > Install and Restart to make the package “official”. Or in the console run:

devtools::install()

To celebrate 🎉, let’s print out our nice tibble 🦐 shrimp:

> testpackage::shrimp
# A tibble: 243 x 10
   Year  Month `0-15`      `15-20`     `20-25`     `25-30`     `30-40`     `40-50`     `50-67`     Pieces     
   <chr> <chr> <chr>       <chr>       <chr>       <chr>       <chr>       <chr>       <chr>       <chr>      
 1 1990  1     5.759555465 4.527945872 3.858928071 3.514200832 3.192596609 2.841849966 2.54415628  1.910168236
 2 1990  2     5.962003847 4.601218856 3.90400544  3.660123275 3.359026722 2.925337664 2.661750431 1.992272943
 3 1990  3     6.341150505 4.753105387 4.170154143 3.870107021 3.556246121 3.414308628 3.179252479 2.457202073
 4 1990  4     6.058025577 4.904859873 4.26679422  3.969849673 3.703260885 3.204955068 2.913211903 1.776717746
 5 1990  5     5.827911652 4.830152374 4.464854478 4.041919716 3.637094201 2.961828687 2.17059349  1.188236536
 6 1990  6     5.818761292 4.788106337 4.382883567 3.879214266 3.270806964 2.712393632 2.239497802 1.450032245
 7 1990  7     5.923164993 4.987179487 4.356993267 3.540394871 2.882228712 2.512950583 2.17032006  1.648464142
 8 1990  8     5.563856926 4.854975559 4.266385694 3.4965833   2.934561646 2.452177137 2.136210905 1.598242815
 9 1990  9     5.912565621 4.998191859 4.416478291 3.758592484 3.140213747 2.660816111 2.337113624 1.745624186
10 1990  10    6.311225952 5.296802562 4.672483114 4.183780113 3.446375802 2.966602596 2.662274751 1.958313571
# … with 233 more rows
…
