Section 9 PART 2: Including data sets | rstudio4edu
…
FYI: The reason .rda (also called .RData) files are use in packaged data sets is because this data file format is much faster to read in than .csv files.

Your data is now callable! Check that you can access your data.

Click Build > Load All

Print your data set object:

aggression_behavior

# A tibble: 214 x 11
   focal compound birthyr obyear  rank `infant?` attack_all chase_all threatcontact_a…
   <chr> <chr>      <dbl>  <dbl> <dbl> <chr>          <dbl>     <dbl>            <dbl>
 1 bs9   a1          2003   2008     3 N                  0         0            0    
 2 gk3   a1          1991   2007     1 Y                  0         0            0    
 3 se8   a1          2001   2008     1 N                  0         0            0    
 4 qq8   a1          2001   2008     3 N                  0         0            2.23 
 5 vd8   a1          2001   2008     3 Y                  0         0            0.998
 6 qv5   a1          1996   2008     3 Y                  0         0            0    
 7 sr8   a1          2001   2008     2 N                  0         0            0    
 8 pk8   a1          2001   2008     2 Y                  0         0            0    
 9 oz4   a1          1994   2008     1 N                  0         0            0    
10 hv5   a1          1996   2007     2 N                  0         0            0    
# … with 204 more rows, and 2 more variables: threatnocontact_all <dbl>, agg_in <dbl>
…
